{
    "task_class": "xpms_lib_dag.tasks.mq_task.MqTask",
    "exec_type": "sync",
    "compatible_groups": [
        "base_dependency_group"
    ],
    "is_enabled": true,
    "category": "services",
    "name": "Generate Table Elements",
    "description": "generate table elements from row and column ranges",
    "cts": "",
    "is_deleted": false,
    "uts": "",
    "default_version": "v1",
    "created_by": "system",
    "modified_by": "system",
    "asset_source": {
        "type": "",
        "name": "",
        "version": ""
    },
    "_XpmsObjectMixin__type": "TaskVersionBundle",
    "_XpmsObjectMixin__api_version": "9.5",
    "task_id": "mbU8uQBiT5K67CKXCahgDw"
}