{
    "task_class": "xpms_lib_dag.tasks.hbase_db_task.HbaseDbTask",
    "exec_type": "sync",
    "compatible_groups": [
        "base_dependency_group"
    ],
    "is_enabled": true,
    "category": "services",
    "name": "hbase db task",
    "description": "",
    "cts": "",
    "is_deleted": false,
    "uts": "",
    "default_version": "P--woZdIRxeBXyVhrH1yRA",
    "created_by": "system",
    "modified_by": "system",
    "asset_source": {
        "type": "",
        "name": "",
        "version": ""
    },
    "_XpmsObjectMixin__type": "TaskVersionBundle",
    "_XpmsObjectMixin__api_version": "9.5",
    "task_id": "k3XWXNSfS3OZxUJvqT0RUw"
}