{
    "task_class": "xpms_lib_dag.tasks.dag_task.DagTask",
    "exec_type": "sync",
    "compatible_groups": [
        "base_dependency_group"
    ],
    "is_enabled": true,
    "category": "pipeline",
    "name": "default text classifier_base_version",
    "description": "",
    "cts": "2020-09-06T07:33:19.618193",
    "is_deleted": false,
    "uts": "2020-09-06T07:33:19.618201",
    "default_version": "",
    "created_by": "system",
    "modified_by": "system",
    "_XpmsObjectMixin__type": "TaskVersionBundle",
    "_XpmsObjectMixin__api_version": "9.0",
    "task_id": "3e18a16a-e46b-426c-a523-00e87ed2f06a"
}