{
    "task_class": "xpms_lib_dag.tasks.dag_task.DagTask",
    "exec_type": "sync",
    "compatible_groups": [
        "base_dependency_group"
    ],
    "is_enabled": true,
    "category": "pipeline",
    "name": "default GAN table model_base_version",
    "description": "",
    "cts": "2020-09-06T07:33:10.266063",
    "is_deleted": false,
    "uts": "2020-09-06T07:33:10.266071",
    "default_version": "",
    "created_by": "system",
    "modified_by": "system",
    "_XpmsObjectMixin__type": "TaskVersionBundle",
    "_XpmsObjectMixin__api_version": "9.0",
    "task_id": "8cb99606-7198-4696-a307-dd653ff64d2b"
}