{
    "name": "extract_bullets",
    "description": "Extract Bullets for each page of document.",
    "created_by": "system",
    "modified_by": "system",
    "cts": "",
    "uts": "2021-02-02T19:21:14.089457",
    "_XpmsObjectMixin__type": "Service",
    "_XpmsObjectMixin__api_version": "9.5",
    "service_id": "004edaa5-40e8-4875-a136-fd6bfe9f83ee",
    "service_key": "extract_bullets_key",
    "display_name": "Extract Bullets",
    "feedback_supported": false,
    "is_deleted": false,
    "is_enabled": true,
    "is_service": true,
    "object_type": [
        "document"
    ],
    "request_schema": "{}",
    "response_schema": "{}",
    "request_trigger": "extract_bullets",
    "response_trigger": "extract_bullets_response",
    "headers": {},
    "service_configuration": "{\"dependencies\": {\"options\": [\"any\", \"all\"], \"is_option_object\": false, \"display_key\": null, \"value_key\": null, \"name\": \"dependencies\", \"description\": \"dependency on previous tasks to run\", \"data_type\": \"string\", \"op_type\": \"categorical\", \"value\": \"any\", \"multi_select\": false, \"hidden\": false, \"config_path\": \"config.dependencies\", \"ui_component\": \"\", \"_XpmsObjectMixin__type\": \"CategoricalListConfiguration\", \"_XpmsObjectMixin__api_version\": \"9.5\"}, \"Bullet Pattern\": {\"name\": \"Bullet Pattern\", \"description\": \"pattern of bullet sequences\", \"data_type\": [\"string\", \"integer\", \"float\", \"boolean\", \"object\"], \"op_type\": \"continuous\", \"value\": null, \"multi_select\": true, \"hidden\": false, \"config_path\": \"config.data.configuration.bullet_sequences\", \"ui_component\": \"\", \"_XpmsObjectMixin__type\": \"StringConfiguration\", \"_XpmsObjectMixin__api_version\": \"9.5\"}}",
    "service_configuration_schema": "{}",
    "feedback_endpoint": "",
    "method": "GET",
    "service_endpoint": "",
    "timeout": {
        "unit": "seconds",
        "value": "100"
    },
    "category_id": "category_3",
    "service_name": "extract_bullets",
    "service_type": "INTERNAL"
}