{
    "name": "extract_headings_features",
    "description": "Extract Heading Features for each page of document.",
    "created_by": "system",
    "modified_by": "system",
    "cts": "",
    "uts": "2021-02-02T19:21:14.160728",
    "_XpmsObjectMixin__type": "Service",
    "_XpmsObjectMixin__api_version": "9.5",
    "service_id": "408b26bd-5c23-428a-8e69-64d00fd96382",
    "service_key": "extract_headings_features_key",
    "display_name": "Extract Headings Features",
    "feedback_supported": false,
    "is_deleted": false,
    "is_enabled": true,
    "is_service": true,
    "object_type": [
        "document"
    ],
    "request_schema": "{}",
    "response_schema": "{}",
    "request_trigger": "extract_headings_features",
    "response_trigger": "extract_headings_features_response",
    "headers": {},
    "service_configuration": "{\"dependencies\": {\"options\": [\"any\", \"all\"], \"is_option_object\": false, \"display_key\": null, \"value_key\": null, \"name\": \"dependencies\", \"description\": \"dependency on previous tasks to run\", \"data_type\": \"string\", \"op_type\": \"categorical\", \"value\": \"any\", \"multi_select\": false, \"hidden\": false, \"config_path\": \"config.dependencies\", \"ui_component\": \"\", \"_XpmsObjectMixin__type\": \"CategoricalListConfiguration\", \"_XpmsObjectMixin__api_version\": \"9.5\"}, \"retrain\": {\"name\": \"retrain\", \"description\": \"select if the call is for retraining the model or for extraction\", \"data_type\": \"boolean\", \"op_type\": \"categorical\", \"value\": false, \"multi_select\": false, \"hidden\": false, \"config_path\": \"config.data.configuration.retrain\", \"ui_component\": \"\", \"_XpmsObjectMixin__type\": \"BooleanConfiguration\", \"_XpmsObjectMixin__api_version\": \"9.5\", \"options\": [true, false]}, \"assisted\": {\"name\": \"assisted\", \"description\": \"select if the call is for assisted training the model or for extraction\", \"data_type\": \"boolean\", \"op_type\": \"categorical\", \"value\": false, \"multi_select\": false, \"hidden\": false, \"config_path\": \"config.data.configuration.assisted\", \"ui_component\": \"\", \"_XpmsObjectMixin__type\": \"BooleanConfiguration\", \"_XpmsObjectMixin__api_version\": \"9.5\", \"options\": [true, false]}, \"Known Headings\": {\"name\": \"Known Headings\", \"description\": \"known Headings\", \"data_type\": \"string\", \"op_type\": \"continuous\", \"value\": null, \"multi_select\": true, \"hidden\": false, \"config_path\": \"config.data.configuration.known_headings\", \"ui_component\": \"\", \"_XpmsObjectMixin__type\": \"StringConfiguration\", \"_XpmsObjectMixin__api_version\": \"9.5\"}, \"Min Height Of Heading Phrase\": {\"min_value\": 2, \"max_value\": 50, \"closure\": \"closed_closed\", \"name\": \"Min Height Of Heading Phrase\", \"description\": \"min heading phrase height\", \"data_type\": \"integer\", \"op_type\": \"continuous\", \"value\": 2, \"multi_select\": false, \"hidden\": false, \"config_path\": \"config.data.configuration.min_height_of_heading_phrase\", \"ui_component\": \"\", \"_XpmsObjectMixin__type\": \"NumericConfiguration\", \"_XpmsObjectMixin__api_version\": \"9.5\"}, \"Known Line Headings\": {\"name\": \"Known Line Headings\", \"description\": \"known Line Headings\", \"data_type\": \"string\", \"op_type\": \"continuous\", \"value\": null, \"multi_select\": true, \"hidden\": false, \"config_path\": \"config.data.configuration.known_line_headings\", \"ui_component\": \"\", \"_XpmsObjectMixin__type\": \"StringConfiguration\", \"_XpmsObjectMixin__api_version\": \"9.5\"}}",
    "service_configuration_schema": "{}",
    "feedback_endpoint": "",
    "method": "GET",
    "service_endpoint": "",
    "timeout": {
        "unit": "seconds",
        "value": "100"
    },
    "category_id": "category_3",
    "service_name": "extract_headings_features",
    "service_type": "INTERNAL"
}