{
    "name": "extract_pdf_from_hocr",
    "description": "Neww Trigger Description",
    "created_by": "system",
    "modified_by": "system",
    "cts": "",
    "uts": "2021-02-02T19:21:14.509963",
    "_XpmsObjectMixin__type": "Service",
    "_XpmsObjectMixin__api_version": "9.5",
    "service_id": "586b30a9-f499-4d0e-b2ab-19329bed292a",
    "service_key": "readable_pdfs",
    "display_name": "New Trigger",
    "feedback_supported": false,
    "is_deleted": false,
    "is_enabled": true,
    "is_service": true,
    "object_type": [
        "document"
    ],
    "request_schema": "{}",
    "response_schema": "{}",
    "request_trigger": "extract_pdf_from_hocr",
    "response_trigger": "new_trigger_response",
    "headers": {},
    "service_configuration": "{\"dependencies\": {\"options\": [\"any\", \"all\"], \"is_option_object\": false, \"display_key\": null, \"value_key\": null, \"name\": \"dependencies\", \"description\": \"dependency on previous tasks to run\", \"data_type\": \"string\", \"op_type\": \"categorical\", \"value\": \"any\", \"multi_select\": false, \"hidden\": false, \"config_path\": \"config.dependencies\", \"ui_component\": \"\", \"_XpmsObjectMixin__type\": \"CategoricalListConfiguration\", \"_XpmsObjectMixin__api_version\": \"9.5\"}}",
    "service_configuration_schema": "{}",
    "feedback_endpoint": "",
    "method": "GET",
    "service_endpoint": "",
    "timeout": {
        "unit": "seconds",
        "value": "100"
    },
    "category_id": "category_4",
    "service_name": "extract_pdf_from_hocr",
    "service_type": "INTERNAL"
}