{
    "name": "extract_omr_features",
    "description": "Extract OMR Features for each page of document.",
    "created_by": "system",
    "modified_by": "system",
    "cts": "",
    "uts": "2021-02-02T19:21:14.026425",
    "_XpmsObjectMixin__type": "Service",
    "_XpmsObjectMixin__api_version": "9.5",
    "service_id": "c7351bbc-79bc-4ac8-9da1-6559b9adba8e",
    "service_key": "extract_omr_features_key",
    "display_name": "Extract Omr Features",
    "feedback_supported": false,
    "is_deleted": false,
    "is_enabled": true,
    "is_service": true,
    "object_type": [
        "document"
    ],
    "request_schema": "{}",
    "response_schema": "{}",
    "request_trigger": "extract_omr_features",
    "response_trigger": "extract_omr_features_response",
    "headers": {},
    "service_configuration": "{\"retrain\": {\"name\": \"retrain\", \"description\": \"select if the call is for retraining the model or for extraction\", \"data_type\": \"boolean\", \"op_type\": \"categorical\", \"value\": false, \"multi_select\": false, \"hidden\": false, \"config_path\": \"config.data.configuration.retrain\", \"ui_component\": \"\", \"_XpmsObjectMixin__type\": \"BooleanConfiguration\", \"_XpmsObjectMixin__api_version\": \"9.5\", \"options\": [true, false]}, \"assisted\": {\"name\": \"assisted\", \"description\": \"select if the call is for assisted training the model or for extraction\", \"data_type\": \"boolean\", \"op_type\": \"categorical\", \"value\": false, \"multi_select\": false, \"hidden\": false, \"config_path\": \"config.data.configuration.assisted\", \"ui_component\": \"\", \"_XpmsObjectMixin__type\": \"BooleanConfiguration\", \"_XpmsObjectMixin__api_version\": \"9.5\", \"options\": [true, false]}, \"dependencies\": {\"options\": [\"any\", \"all\"], \"is_option_object\": false, \"display_key\": null, \"value_key\": null, \"name\": \"dependencies\", \"description\": \"dependency on previous tasks to run\", \"data_type\": \"string\", \"op_type\": \"categorical\", \"value\": \"any\", \"multi_select\": false, \"hidden\": false, \"config_path\": \"config.dependencies\", \"ui_component\": \"\", \"_XpmsObjectMixin__type\": \"CategoricalListConfiguration\", \"_XpmsObjectMixin__api_version\": \"9.5\"}}",
    "service_configuration_schema": "{}",
    "feedback_endpoint": "",
    "method": "GET",
    "service_endpoint": "",
    "timeout": {
        "unit": "seconds",
        "value": "100"
    },
    "category_id": "category_3",
    "service_name": "extract_omr_features",
    "service_type": "INTERNAL"
}