{
    "name": "export_document",
    "description": "service to export document",
    "created_by": "system",
    "modified_by": "system",
    "cts": "",
    "uts": "2021-02-02T19:21:19.165510",
    "_XpmsObjectMixin__type": "Service",
    "_XpmsObjectMixin__api_version": "9.5",
    "service_id": "d847c903-6628-4e51-9dcb-53178b84e2f3",
    "service_key": "export_document_key",
    "display_name": "Export Document",
    "feedback_supported": false,
    "is_deleted": false,
    "is_enabled": true,
    "is_service": true,
    "object_type": [
        "document"
    ],
    "request_schema": "{\"type\": \"object\", \"properties\": {\"request_id\": {\"type\": \"string\"}, \"solution_id\": {\"type\": \"string\"}, \"data\": {\"type\": \"object\", \"properties\": {\"doc_id\": {\"type\": \"string\"}}, \"required\": [\"doc_id\"]}, \"trigger\": {\"enum\": [\"export_document\"]}}, \"required\": [\"request_id\", \"solution_id\", \"trigger\", \"data\"]}",
    "response_schema": "{\"type\": \"object\", \"properties\": {\"request_id\": {\"type\": \"string\"}, \"solution_id\": {\"type\": \"string\"}, \"metadata\": {\"type\": \"object\", \"properties\": {\"doc_id\": {\"type\": \"string\"}, \"document_elements\": {\"type\": \"array\"}}, \"required\": [\"doc_id\"]}, \"status\": {\"type\": \"object\"}, \"trigger\": {\"enum\": [\"export_document_response\"]}}, \"required\": [\"request_id\", \"solution_id\", \"trigger\", \"metadata\"]}",
    "request_trigger": "export_document",
    "response_trigger": "export_document_response",
    "headers": {},
    "service_configuration": "{}",
    "service_configuration_schema": "{}",
    "feedback_endpoint": "",
    "method": "GET",
    "service_endpoint": "",
    "timeout": {
        "unit": "seconds",
        "value": "240"
    },
    "category_id": "category_8",
    "service_name": "export_document",
    "service_type": "INTERNAL"
}