{
    "name": "extract_entities",
    "description": "",
    "created_by": "system",
    "modified_by": "system",
    "cts": "",
    "uts": "2021-02-02T19:22:40.905493",
    "_XpmsObjectMixin__type": "Service",
    "_XpmsObjectMixin__api_version": "9.5",
    "service_id": "eecf2743-2bb5-43d0-8d5b-9c5d1709f32d",
    "service_key": "entities",
    "display_name": "Extract Entities",
    "feedback_supported": true,
    "is_deleted": false,
    "is_enabled": true,
    "is_service": true,
    "object_type": [
        "document",
        "domain"
    ],
    "request_schema": "{}",
    "response_schema": "{}",
    "request_trigger": "extract_entities_request",
    "response_trigger": "extract_entities_response",
    "headers": {},
    "service_configuration": "{}",
    "service_configuration_schema": "{}",
    "feedback_endpoint": "",
    "method": "GET",
    "service_endpoint": "",
    "timeout": {
        "unit": "seconds",
        "value": "10"
    },
    "category_id": "category_4",
    "service_name": "extract_entities",
    "service_type": "INTERNAL"
}