{
    "name": "update_doc_state",
    "description": "updates the doc_state of document",
    "created_by": "system",
    "modified_by": "system",
    "cts": "",
    "uts": "2021-02-02T19:21:19.072260",
    "_XpmsObjectMixin__type": "Service",
    "_XpmsObjectMixin__api_version": "9.5",
    "service_id": "f26988dd-c1a5-4768-9bc3-62ae07bea932",
    "service_key": "update_doc_state_key",
    "display_name": "Update Doc State",
    "feedback_supported": false,
    "is_deleted": false,
    "is_enabled": true,
    "is_service": true,
    "object_type": [
        "document"
    ],
    "request_schema": "{\"type\": \"object\", \"properties\": {\"request_id\": {\"type\": \"string\"}, \"solution_id\": {\"type\": \"string\"}, \"data\": {\"type\": \"object\", \"properties\": {\"doc_id\": {\"type\": \"string\"}}, \"required\": [\"doc_id\"]}, \"trigger\": {\"enum\": [\"update_doc_state\"]}}, \"required\": [\"request_id\", \"solution_id\", \"trigger\", \"data\"]}",
    "response_schema": "{\"type\": \"object\", \"properties\": {\"request_id\": {\"type\": \"string\"}, \"solution_id\": {\"type\": \"string\"}, \"metadata\": {\"type\": \"object\", \"properties\": {\"doc_id\": {\"type\": \"string\"}, \"document_metadata\": {\"type\": \"object\"}}, \"required\": [\"doc_id\"]}, \"status\": {\"type\": \"object\"}, \"trigger\": {\"enum\": [\"update_doc_state_response\"]}}, \"required\": [\"request_id\", \"solution_id\", \"trigger\", \"metadata\"]}",
    "request_trigger": "update_doc_state",
    "response_trigger": "update_doc_state_response",
    "headers": {},
    "service_configuration": "{}",
    "service_configuration_schema": "{}",
    "feedback_endpoint": "",
    "method": "GET",
    "service_endpoint": "",
    "timeout": {
        "unit": "seconds",
        "value": "10"
    },
    "category_id": "category_5",
    "service_name": "update_doc_state",
    "service_type": "INTERNAL"
}