{
    "task_class": "ml_lib.model.dag_tasks.ml_task.MLTask",
    "exec_type": "sync",
    "compatible_groups": [
        "default_dependency_package_group"
    ],
    "is_enabled": true,
    "category": "ml",
    "name": "SKL XGB Binary Classifier",
    "description": "Scikit-Learn Wrapper interface for XGBoost.",
    "cts": "",
    "is_deleted": false,
    "uts": "",
    "default_version": "v1",
    "created_by": "system",
    "modified_by": "system",
    "asset_source": {
        "type": "",
        "name": "",
        "version": ""
    },
    "_XpmsObjectMixin__type": "TaskVersionBundle",
    "_XpmsObjectMixin__api_version": "9.5",
    "task_id": "VyXVEklYRiypB1rsuKhTkw"
}