{
    "pipeline_id": "6fd540e1-aaba-43c8-8c2a-9a92c6c34019",
    "input_schema": {},
    "output_schema": {},
    "is_enabled": true,
    "category": "pipeline",
    "name": "omr_extraction_pipeline",
    "description": "",
    "cts": "2020-10-11T13:14:25.692706",
    "is_deleted": false,
    "uts": "2020-10-11T13:33:20.562246",
    "default_version": "aaea2fbb-90fa-454e-b588-9de0144c5267",
    "created_by": "system",
    "modified_by": "system",
    "_XpmsObjectMixin__type": "Pipeline",
    "_XpmsObjectMixin__api_version": "9.5",
    "generate_api": false
}