{
    "pipeline_id": "ceb814bb-e20c-4446-82f5-b2cc53cd64cb",
    "input_schema": {},
    "output_schema": {},
    "is_enabled": true,
    "category": "pipeline",
    "name": "run_confidence_model",
    "description": "",
    "cts": "2020-04-15T14:21:46.714140",
    "is_deleted": false,
    "uts": "2020-04-18T11:18:13.715560",
    "default_version": "51f9acc2-ed38-4572-ac8f-e888e531240a",
    "created_by": "system",
    "modified_by": "system",
    "_XpmsObjectMixin__type": "Pipeline",
    "_XpmsObjectMixin__api_version": "9.0",
    "generate_api": false
}